mc20_13TeV.412043.aMcAtNloPythia8EvtGen_A14NNPDF31_SM4topsNLO.deriv.DAOD_PHYS.e7101_a907_r14859_p6490
mc20_13TeV.412043.aMcAtNloPythia8EvtGen_A14NNPDF31_SM4topsNLO.deriv.DAOD_PHYS.e7101_a907_r14860_p6490
mc20_13TeV.412043.aMcAtNloPythia8EvtGen_A14NNPDF31_SM4topsNLO.deriv.DAOD_PHYS.e7101_a907_r14861_p6490
